{
  "tree": {
    "typescript-collections@1.3.2": {
      "deps": {},
      "name": "typescript-collections",
      "version": "1.3.2"
    }
  },
  "flat": {
    "typescript-collections@1.3.2": {
      "name": "typescript-collections",
      "version": "1.3.2",
      "files": [
        "dist/lib/index.js",
        "dist/lib/arrays.js",
        "dist/lib/util.js",
        "dist/lib/Bag.js",
        "dist/lib/Dictionary.js",
        "dist/lib/Set.js",
        "dist/lib/BSTree.js",
        "dist/lib/BSTreeKV.js",
        "dist/lib/Queue.js",
        "dist/lib/LinkedList.js",
        "dist/lib/Heap.js",
        "dist/lib/LinkedDictionary.js",
        "dist/lib/MultiDictionary.js",
        "dist/lib/FactoryDictionary.js",
        "dist/lib/PriorityQueue.js",
        "dist/lib/Stack.js",
        "dist/lib/MultiRootTree.js"
      ]
    }
  }
}